{
	"Configuration": {
	    "Appenders": {
			"Console": {
				"PatternLayout": {
					"pattern": "%d{yyyy-MM-dd HH:mm:ss a} [%t] %-5level %logger{36} - %msg%n"
				},
				"name": "Console",
				"target": "SYSTEM_OUT"
			},
			"File": {
				"PatternLayout": {
					"pattern": "%d{yyyy-MM-dd HH:mm:ss a} [%t] %-5level %logger{36} - %msg%n"
				},
				"name": "File",
				"fileName": "c:/csc/EnterprisePaymentsAppLogs.log"
			},
			"RollingFile": {
				"name": "RollingFile",
				"fileName": "c:/csc/EnterprisePaymentsLog.log",
				"filePattern": "c:/csc/EnterprisePaymentsLog.%d{yyyy-MM-dd-hh-mm}.gz",
				"PatternLayout": {
					"pattern": "%d{yyyy-MM-dd HH:mm:ss a} [%t] %-5level %logger{36} - %msg%n"
				},
				"Policies": {
					"SizeBasedTriggeringPolicy": {
						"size": "10 MB"
					}
				},
				"DefaultRolloverStrategy": {
					"max": "20"
				}
			}
		},
		"Loggers": {
			"AsyncRoot": {
				"AppenderRef": [
					{
						"ref": "Console"
					},
					{
						"ref": "File"
					}
				],
				"level": "error"
			},
			"AsyncLogger": [
				{
					"name": "billing",
					"level": "error",
					"additivity" : "false",
					"appender-ref": [
						{
							"ref": "Console"
						},
						{
							"ref": "RollingFile"
						}
					]
				},
				{
					"name": "party",
					"level": "error",
					"additivity" : "false",
					"appender-ref": [
						{
							"ref": "Console"
						},
						{
							"ref": "RollingFile"
						}
					]
				},
				{
					"name": "fis",
					"level": "error",
					"additivity" : "false",
					"appender-ref": [
						{
							"ref": "Console"
						},
						{
							"ref": "RollingFile"
						}
					]
				},
				{
					"name": "core",
					"level": "error",
					"additivity" : "false",
					"appender-ref": [
						{
							"ref": "Console"
						},
						{
							"ref": "RollingFile"
						}
					]
				},
				{
					"name": "application",
					"level": "error",
					"additivity" : "false",
					"appender-ref": [
						{
							"ref": "Console"
						},
						{
							"ref": "RollingFile"
						}
					]
				}
			]
		}
	}
}

